{
  "selectors": [
    {
      "parentSelectors": [
        "_root"
      ],
      "type": "SelectorText",
      "multiple": false,
      "id": "tooltip",
      "selector": "h2 p",
      "regex": "",
      "delay": ""
    },
    {
      "parentSelectors": [
        "_root"
      ],
      "type": "SelectorText",
      "multiple": false,
      "id": "ref",
      "selector": "div.ssid",
      "regex": "",
      "delay": ""
    },
    {
      "parentSelectors": [
        "_root"
      ],
      "type": "SelectorText",
      "multiple": false,
      "id": "name",
      "selector": "h1.uppercase",
      "regex": "",
      "delay": ""
    },
    {
      "parentSelectors": [
        "_root"
      ],
      "type": "SelectorText",
      "multiple": false,
      "id": "usp",
      "selector": "div.span7 h2",
      "regex": "",
      "delay": ""
    },
    {
      "parentSelectors": [
        "_root"
      ],
      "type": "SelectorText",
      "multiple": false,
      "id": "main_marketing",
      "selector": "div.span7 p",
      "regex": "",
      "delay": ""
    },
    {
      "parentSelectors": [
        "_root"
      ],
      "type": "SelectorText",
      "multiple": false,
      "id": "key_features",
      "selector": "div.tab-pane div.span6:nth-of-type(1) > div",
      "regex": "",
      "delay": ""
    },
    {
      "parentSelectors": [
        "_root"
      ],
      "type": "SelectorText",
      "multiple": false,
      "id": "whats_in_the_box",
      "selector": "tr:contains('What's in the box?') p",
      "regex": "",
      "delay": ""
    },
    {
      "parentSelectors": [
        "_root"
      ],
      "type": "SelectorImage",
      "multiple": false,
      "id": "smallimage",
      "selector": "div.span6 img.img-responsive",
      "downloadImage": false,
      "delay": ""
    },
    {
      "parentSelectors": [
        "_root"
      ],
      "type": "SelectorText",
      "multiple": false,
      "id": "spec",
      "selector": "div.section_heading span",
      "regex": "",
      "delay": ""
    }
  ],
  "startUrl": [
  
	"http://www.suunto.com/Products/sports-watches/Suunto-Traverse-Alpha/Suunto-Traverse-Alpha-Foliage/",
	"http://www.suunto.com/Products/sports-watches/Suunto-Traverse-Alpha/Suunto-Traverse-Alpha-Stealth/",
	"http://www.suunto.com/Products/sports-watches/Suunto-Traverse/Suunto-Traverse-Sapphire-Black/",
	"http://www.suunto.com/Products/sports-watches/Suunto-Traverse/Suunto-Traverse-Amber/",
	"http://www.suunto.com/Products/sports-watches/Suunto-Traverse/Suunto-Traverse-Black/",
	"http://www.suunto.com/Products/sports-watches/Suunto-Traverse/Suunto-Traverse-White/",
	"http://www.suunto.com/Products/sports-watches/Suunto-Traverse/Suunto-Traverse-Graphite/",
	"http://www.suunto.com/Products/Straps/Suunto-Traverse-Alpha-Foliage-Textile-Strap-Kit/",
	"http://www.suunto.com/Products/Straps/Suunto-Traverse-Alpha-Stealth-Textile-Strap-Kit/",
	"http://www.suunto.com/Products/Straps/Suunto-Traverse-Amber-Silicone-Strap/",
	"http://www.suunto.com/Products/Straps/Suunto-Traverse-Black-Silicone-Strap/",
	"http://www.suunto.com/Products/Straps/Suunto-Traverse-Graphite-Silicone-Strap/",
	"http://www.suunto.com/Products/Straps/Suunto-Traverse-White-Silicone-Strap/"

  ],
  "_id": "traverse"
}
